module rubentxu.dev/jenkins_dev_container

go 1.19

require (
	github.com/docker/docker v23.0.1+incompatible
	github.com/docker/go-connections v0.4.0
	github.com/gofiber/fiber/v2 v2.42.0
	github.com/gofiber/websocket/v2 v2.1.4
	github.com/joho/godotenv v1.5.1
	github.com/markbates/pkger v0.17.1
	golang.org/x/net v0.6.0
)

require (
	github.com/Microsoft/go-winio v0.6.0 // indirect
	github.com/andybalholm/brotli v1.0.5 // indirect
	github.com/docker/distribution v2.8.1+incompatible // indirect
	github.com/docker/go-units v0.5.0 // indirect
	github.com/fasthttp/websocket v1.5.1 // indirect
	github.com/gobuffalo/here v0.6.7 // indirect
	github.com/gogo/protobuf v1.3.2 // indirect
	github.com/google/uuid v1.3.0 // indirect
	github.com/klauspost/compress v1.15.15 // indirect
	github.com/mattn/go-colorable v0.1.13 // indirect
	github.com/mattn/go-isatty v0.0.17 // indirect
	github.com/mattn/go-runewidth v0.0.14 // indirect
	github.com/moby/term v0.0.0-20221205130635-1aeaba878587 // indirect
	github.com/morikuni/aec v1.0.0 // indirect
	github.com/opencontainers/go-digest v1.0.0 // indirect
	github.com/opencontainers/image-spec v1.0.2 // indirect
	github.com/philhofer/fwd v1.1.2 // indirect
	github.com/pkg/errors v0.9.1 // indirect
	github.com/rivo/uniseg v0.4.3 // indirect
	github.com/savsgio/dictpool v0.0.0-20221023140959-7bf2e61cea94 // indirect
	github.com/savsgio/gotils v0.0.0-20230208104028-c358bd845dee // indirect
	github.com/tinylib/msgp v1.1.8 // indirect
	github.com/valyala/bytebufferpool v1.0.0 // indirect
	github.com/valyala/fasthttp v1.44.0 // indirect
	github.com/valyala/tcplisten v1.0.0 // indirect
	golang.org/x/mod v0.8.0 // indirect
	golang.org/x/sys v0.5.0 // indirect
	golang.org/x/time v0.3.0 // indirect
	golang.org/x/tools v0.6.0 // indirect
	gotest.tools/v3 v3.4.0 // indirect
)
