[
  {
    "name": "jdk-tool",
    "version": "latest",
    "isSelected": true
  },
  {
    "name": "command-launcher",
    "version": "latest",
    "isSelected": true
  },
  {
    "name": "script-security",
    "version": "latest",
    "isSelected": true
  },
  {
    "name": "bouncycastle-api.dart",
    "version": "latest",
    "isSelected": true
  },
  {
    "name": "jaxb",
    "version": "latest",
    "isSelected": true
  },
  {
    "name": "structs",
    "version": "latest",
    "isSelected": true
  },
  {
    "name": "branch-api.dart",
    "version": "latest",
    "isSelected": true
  },
  {
    "name": "handy-uri-templates-2-api.dart",
    "version": "latest",
    "isSelected": true
  },
  {
    "name": "workflow-step-api.dart",
    "version": "latest",
    "isSelected": true
  },
  {
    "name": "pipeline-model-api.dart",
    "version": "latest",
    "isSelected": true
  },
  {
    "name": "jackson2-api.dart",
    "version": "latest",
    "isSelected": true
  },
  {
    "name": "gitlab-api.dart",
    "version": "latest",
    "isSelected": true
  },
  {
    "name": "gitlab-plugin",
    "version": "latest",
    "isSelected": true
  },
  {
    "name": "gitlab-branch-source",
    "version": "latest",
    "isSelected": true
  },
  {
    "name": "ant",
    "version": "latest",
    "isSelected": true
  },
  {
    "name": "structs",
    "version": "latest",
    "isSelected": true
  },
  {
    "name": "matrix-auth",
    "version": "latest",
    "isSelected": true
  },
  {
    "name": "junit",
    "version": "latest",
    "isSelected": true
  },
  {
    "name": "scm-api.dart",
    "version": "latest",
    "isSelected": true
  },
  {
    "name": "workflow-step-api.dart",
    "version": "latest",
    "isSelected": true
  },
  {
    "name": "matrix-project",
    "version": "latest",
    "isSelected": true
  },
  {
    "name": "workflow-api.dart",
    "version": "latest",
    "isSelected": true
  },
  {
    "name": "antisamy-markup-formatter",
    "version": "latest",
    "isSelected": true
  },
  {
    "name": "windows-slaves",
    "version": "latest",
    "isSelected": true
  },
  {
    "name": "external-monitor-job",
    "version": "latest",
    "isSelected": true
  },
  {
    "name": "mailer",
    "version": "latest",
    "isSelected": true
  },
  {
    "name": "display-url-api.dart",
    "version": "latest",
    "isSelected": true
  },
  {
    "name": "ldap",
    "version": "latest",
    "isSelected": true
  },
  {
    "name": "pam-auth",
    "version": "latest",
    "isSelected": true
  },
  {
    "name": "javadoc",
    "version": "latest",
    "isSelected": true
  },
  {
    "name": "skip-certificate-check",
    "version": "latest",
    "isSelected": true
  },
  {
    "name": "snakeyaml-api.dart",
    "version": "latest",
    "isSelected": true
  },
  {
    "name": "sonar",
    "version": "latest",
    "isSelected": true
  },
  {
    "name": "workflow-scm-step",
    "version": "latest",
    "isSelected": true
  },
  {
    "name": "ansicolor",
    "version": "latest",
    "isSelected": true
  },
  {
    "name": "configuration-as-code",
    "version": "latest",
    "isSelected": true
  },
  {
    "name": "config-file-provider",
    "version": "latest",
    "isSelected": true
  },
  {
    "name": "jquery-detached",
    "version": "latest",
    "isSelected": true
  },
  {
    "name": "plain-credentials",
    "version": "latest",
    "isSelected": true
  },
  {
    "name": "momentjs",
    "version": "latest",
    "isSelected": true
  },
  {
    "name": "cloudbees-folder",
    "version": "latest",
    "isSelected": true
  },
  {
    "name": "authentication-tokens",
    "version": "latest",
    "isSelected": true
  },
  {
    "name": "caffeine-api.dart",
    "version": "latest",
    "isSelected": true
  },
  {
    "name": "scm-api.dart",
    "version": "latest",
    "isSelected": true
  },
  {
    "name": "pipeline-utility-steps",
    "version": "latest",
    "isSelected": true
  },
  {
    "name": "display-url-api.dart",
    "version": "latest",
    "isSelected": true
  },
  {
    "name": "pipeline-stage-tags-metadata",
    "version": "latest",
    "isSelected": true
  },
  {
    "name": "trilead-api.dart",
    "version": "latest",
    "isSelected": true
  },
  {
    "name": "credentials",
    "version": "latest",
    "isSelected": true
  },
  {
    "name": "pipeline-stage-step",
    "version": "latest",
    "isSelected": true
  },
  {
    "name": "handlebars",
    "version": "latest",
    "isSelected": true
  },
  {
    "name": "pipeline-milestone-step",
    "version": "latest",
    "isSelected": true
  },
  {
    "name": "apache-httpcomponents-client-4-api.dart",
    "version": "latest",
    "isSelected": true
  },
  {
    "name": "ace-editor",
    "version": "latest",
    "isSelected": true
  },
  {
    "name": "antisamy-markup-formatter",
    "version": "latest",
    "isSelected": true
  },
  {
    "name": "durable-task",
    "version": "latest",
    "isSelected": true
  },
  {
    "name": "nodejs",
    "version": "latest",
    "isSelected": true
  },
  {
    "name": "job-dsl",
    "version": "latest",
    "isSelected": true
  },
  {
    "name": "xml-job-to-job-dsl",
    "version": "latest",
    "isSelected": true
  },
  {
    "name": "workflow-multibranch",
    "version": "latest",
    "isSelected": true
  },
  {
    "name": "remote-file",
    "version": "latest",
    "isSelected": true
  },
  {
    "name": "htmlpublisher",
    "version": "latest",
    "isSelected": true
  },
  {
    "name": "git-changelog",
    "version": "latest",
    "isSelected": true
  },
  {
    "name": "workflow-aggregator",
    "version": "latest",
    "isSelected": true
  },
  {
    "name": "pipeline-stage-view",
    "version": "latest",
    "isSelected": true
  },
  {
    "name": "envinject",
    "version": "latest",
    "isSelected": true
  },
  {
    "name": "parameterized-trigger",
    "version": "latest",
    "isSelected": true
  },
  {
    "name": "uno-choice",
    "version": "latest",
    "isSelected": true
  },
  {
    "name": "extensible-choice-parameter",
    "version": "latest",
    "isSelected": true
  },
  {
    "name": "prisma-cloud-iac-scan",
    "version": "latest",
    "isSelected": true
  },
  {
    "name": "ws-cleanup",
    "version": "latest",
    "isSelected": true
  }
]
